﻿<?xml version="1.0" encoding="utf-8"?>
<CatapultTargetOutput
  GeneratedTarget="/Output/VNELSRO/Web output/Default.htm"
  BuildVersion="14.0.6738.27462">
  <Files />
  <Skins />
</CatapultTargetOutput>